Download Physician Office Visit Cost Data • costoffice
…
# install.packages("remotes")
remotes::install_github("andrewallenbruce/costoffice", build_vignettes = TRUE)

library(costoffice)

search_datasets()

Returns a data frame of each dataset’s medical specialty, date of most recent release, and a download link for it’s corresponding csv file:

# Call with no arguments to return the entire data frame
search_datasets()

#> # A tibble: 83 × 3
#>    specialty                                        released   csv_url          
#>    <chr>                                            <date>     <chr>            
#>  1 addiction_medicine                               2022-07-14 https://data.cms…
#>  2 advanced_heart_failure_and_transplant_cardiology 2022-07-14 https://data.cms…
#>  3 allergy_immunology                               2022-07-14 https://data.cms…
#>  4 anesthesiology                                   2022-07-14 https://data.cms…
#>  5 cardiac_surgery                                  2022-07-14 https://data.cms…
#>  6 cardiology                                       2022-07-14 https://data.cms…
#>  7 certified_clinical_nurse_specialist              2022-07-14 https://data.cms…
#>  8 certified_nurse_midwife                          2022-07-14 https://data.cms…
#>  9 certified_registered_nurse_anesthetist_crna      2022-07-14 https://data.cms…
#> 10 clinic_or_group_practice                         2022-07-14 https://data.cms…
#> # ℹ 73 more rows
…
