Search Physician Office Visit Costs Data sets by Specialty — search_datasets • costoffice
…
# Calling the function with no arguments will return the entire dataset
search_datasets()
#> # A tidytable: 83 × 6
#>    specialty                      title issued     modified   released   csv_url
#>    <chr>                          <chr> <date>     <date>     <date>     <chr>  
#>  1 addiction medicine             Addi… 2022-07-11 2022-07-11 2022-07-14 https:…
#>  2 advanced heart failure and tr… Adva… 2022-07-11 2022-07-11 2022-07-14 https:…
#>  3 allergy/ immunology            Alle… 2022-07-11 2022-07-11 2022-07-14 https:…
#>  4 anesthesiology                 Anes… 2022-07-11 2022-07-11 2022-07-14 https:…
#>  5 cardiac surgery                Card… 2022-07-11 2022-07-11 2022-07-14 https:…
#>  6 cardiology                     Card… 2022-07-11 2022-07-11 2022-07-14 https:…
#>  7 certified clinical nurse spec… Cert… 2022-07-11 2022-07-11 2022-07-14 https:…
#>  8 certified nurse midwife        Cert… 2022-07-11 2022-07-11 2022-07-14 https:…
#>  9 certified registered nurse an… Cert… 2022-07-11 2022-07-11 2022-07-14 https:…
#> 10 clinic or group practice       Clin… 2022-07-11 2022-07-11 2022-07-14 https:…
#> # ℹ 73 more rows
…
